{
  "systemParameters": {
    "driverCores": 1,
    "driverMemory": "1G",
    "executorCores": 4,
    "executorMemory": "2G",
    "totalExecutorCores": 4
  },
  "hyperParameters": {
    "model": "lenet5",
    "batchSize": 128,
    "maxEpoch": 10,
    "learningRate": 0.01,
    "learningRateDecay": 0.0001
  }
}